RTL/adder_2bit.vcd
$date
	Sun Mar 30 13:34:45 2025
$end
$version
	ModelSim Version 2019.1
$end
$timescale
	100ps
$end

$scope module tb_adder_2bit $end
$var reg 1 ! clk_tb $end
$var reg 2 " a [1:0] $end
$var reg 2 # b [1:0] $end
$var wire 1 $ sum [1] $end
$var wire 1 % sum [0] $end
$var wire 1 & cout $end

$scope module dut $end
$var wire 1 ' clk $end
$var wire 1 ( a [1] $end
$var wire 1 ) a [0] $end
$var wire 1 * b [1] $end
$var wire 1 + b [0] $end
$var reg 2 , sum [1:0] $end
$var reg 1 - cout $end
$upscope $end
$upscope $end
$enddefinitions $end
#0
$dumpvars
0!
b0 "
b0 #
bx ,
x-
x%
x$
x&
0+
0*
0)
0(
0'
$end
#20
1!
1'
b0 ,
0-
0%
0$
0&
#40
0!
0'
#60
1!
1'
#80
0!
0'
#100
1!
1'
#110
b1 "
b1 #
1+
1)
#120
0!
0'
#140
1!
1'
b10 ,
1$
#160
0!
0'
#180
1!
1'
#190
b10 "
0)
1(
#200
0!
0'
#220
1!
1'
b11 ,
1%
#240
0!
0'
#260
1!
1'
#270
b10 #
0+
1*
#280
0!
0'
#300
1!
1'
b0 ,
1-
0%
0$
1&
#320
0!
0'
#340
1!
1'
#350
b11 "
b11 #
1+
1)
#360
0!
0'
#380
1!
1'
b10 ,
1$
